; Engine configuration file.
; It's best edited using the editor UI and not directly,
; since the parameters that go here are not all obvious.
;
; Format:
;   [section] ; section goes between []
;   param=value ; assign values to parameters

config_version=5

[application]

config/name="Mishu"
run/main_scene="res://main.tscn"
config/features=PackedStringArray("4.2", "GL Compatibility")
config/icon="res://icon.svg"

[display]

window/size/viewport_width=640
window/size/viewport_height=480
window/stretch/mode="viewport"

[rendering]

textures/canvas_textures/default_texture_filter=0
renderer/rendering_method="gl_compatibility"
renderer/rendering_method.mobile="gl_compatibility"
textures/default_filters/anisotropic_filtering_level=0
textures/decals/filter=0
textures/light_projectors/filter=0
